Data Wrangling (Chapter 5) Answer Key
…
You can list sequentially any conditions you want to have met. Because this functions as a logical AND operator, the order does not matter. Results that are returned must satisfy all of the filter requirements.

Note that by default filter removes all NA values, so if you want to keep those in, you need to explicitly include them. (examples are given in section 5.2.3)

I think the visual Venn diagram in section 5.2.2 might be worth having close at hand for many of you.

5.2.4 Answers

All responses to 1 are just to write code, shown here:

#1 Had an arrival delay of two or more hours
filter(flights,arr_delay>=120)

# A tibble: 10,200 × 19
    year month   day dep_time sched_de…¹ dep_d…² arr_t…³ sched…⁴ arr_d…⁵ carrier
   <int> <int> <int>    <int>      <int>   <dbl>   <int>   <int>   <dbl> <chr>  
 1  2013     1     1      811        630     101    1047     830     137 MQ     
 2  2013     1     1      848       1835     853    1001    1950     851 MQ     
 3  2013     1     1      957        733     144    1056     853     123 UA     
 4  2013     1     1     1114        900     134    1447    1222     145 UA     
 5  2013     1     1     1505       1310     115    1638    1431     127 EV     
 6  2013     1     1     1525       1340     105    1831    1626     125 B6     
 7  2013     1     1     1549       1445      64    1912    1656     136 EV     
 8  2013     1     1     1558       1359     119    1718    1515     123 EV     
 9  2013     1     1     1732       1630      62    2028    1825     123 EV     
10  2013     1     1     1803       1620     103    2008    1750     138 MQ     
# … with 10,190 more rows, 9 more variables: flight <int>, tailnum <chr>,
#   origin <chr>, dest <chr>, air_time <dbl>, distance <dbl>, hour <dbl>,
#   minute <dbl>, time_hour <dttm>, and abbreviated variable names
#   ¹​sched_dep_time, ²​dep_delay, ³​arr_time, ⁴​sched_arr_time, ⁵​arr_delay

#2 Flew to Houston (IAH or HOU)
filter(flights,dest %in% c("HOU","IAH"))

# A tibble: 9,313 × 19
    year month   day dep_time sched_de…¹ dep_d…² arr_t…³ sched…⁴ arr_d…⁵ carrier
   <int> <int> <int>    <int>      <int>   <dbl>   <int>   <int>   <dbl> <chr>  
 1  2013     1     1      517        515       2     830     819      11 UA     
 2  2013     1     1      533        529       4     850     830      20 UA     
 3  2013     1     1      623        627      -4     933     932       1 UA     
 4  2013     1     1      728        732      -4    1041    1038       3 UA     
 5  2013     1     1      739        739       0    1104    1038      26 UA     
 6  2013     1     1      908        908       0    1228    1219       9 UA     
 7  2013     1     1     1028       1026       2    1350    1339      11 UA     
 8  2013     1     1     1044       1045      -1    1352    1351       1 UA     
 9  2013     1     1     1114        900     134    1447    1222     145 UA     
10  2013     1     1     1205       1200       5    1503    1505      -2 UA     
# … with 9,303 more rows, 9 more variables: flight <int>, tailnum <chr>,
#   origin <chr>, dest <chr>, air_time <dbl>, distance <dbl>, hour <dbl>,
#   minute <dbl>, time_hour <dttm>, and abbreviated variable names
#   ¹​sched_dep_time, ²​dep_delay, ³​arr_time, ⁴​sched_arr_time, ⁵​arr_delay

#3 Were operated by United, American, or Delta
unique(flights$carrier) # to ge the acronyms/abbreviations correct

 [1] "UA" "AA" "B6" "DL" "EV" "MQ" "US" "WN" "VX" "FL" "AS" "9E" "F9" "HA" "YV"
[16] "OO"

filter(flights,carrier %in% c("UA","DL","AA"))

# A tibble: 139,504 × 19
    year month   day dep_time sched_de…¹ dep_d…² arr_t…³ sched…⁴ arr_d…⁵ carrier
   <int> <int> <int>    <int>      <int>   <dbl>   <int>   <int>   <dbl> <chr>  
 1  2013     1     1      517        515       2     830     819      11 UA     
 2  2013     1     1      533        529       4     850     830      20 UA     
 3  2013     1     1      542        540       2     923     850      33 AA     
 4  2013     1     1      554        600      -6     812     837     -25 DL     
 5  2013     1     1      554        558      -4     740     728      12 UA     
 6  2013     1     1      558        600      -2     753     745       8 AA     
 7  2013     1     1      558        600      -2     924     917       7 UA     
 8  2013     1     1      558        600      -2     923     937     -14 UA     
 9  2013     1     1      559        600      -1     941     910      31 AA     
10  2013     1     1      559        600      -1     854     902      -8 UA     
# … with 139,494 more rows, 9 more variables: flight <int>, tailnum <chr>,
#   origin <chr>, dest <chr>, air_time <dbl>, distance <dbl>, hour <dbl>,
#   minute <dbl>, time_hour <dttm>, and abbreviated variable names
#   ¹​sched_dep_time, ²​dep_delay, ³​arr_time, ⁴​sched_arr_time, ⁵​arr_delay

#4 Departed in summer (July, August, and September)
filter(flights,month %in% c(7,8,9))

# A tibble: 86,326 × 19
    year month   day dep_time sched_de…¹ dep_d…² arr_t…³ sched…⁴ arr_d…⁵ carrier
   <int> <int> <int>    <int>      <int>   <dbl>   <int>   <int>   <dbl> <chr>  
 1  2013     7     1        1       2029     212     236    2359     157 B6     
 2  2013     7     1        2       2359       3     344     344       0 B6     
 3  2013     7     1       29       2245     104     151       1     110 B6     
 4  2013     7     1       43       2130     193     322      14     188 B6     
 5  2013     7     1       44       2150     174     300     100     120 AA     
 6  2013     7     1       46       2051     235     304    2358     186 B6     
 7  2013     7     1       48       2001     287     308    2305     243 VX     
 8  2013     7     1       58       2155     183     335      43     172 B6     
 9  2013     7     1      100       2146     194     327      30     177 B6     
10  2013     7     1      100       2245     135     337     135     122 B6     
# … with 86,316 more rows, 9 more variables: flight <int>, tailnum <chr>,
#   origin <chr>, dest <chr>, air_time <dbl>, distance <dbl>, hour <dbl>,
#   minute <dbl>, time_hour <dttm>, and abbreviated variable names
#   ¹​sched_dep_time, ²​dep_delay, ³​arr_time, ⁴​sched_arr_time, ⁵​arr_delay

#5 Arrived more than two hours late, but didn’t leave late
filter(flights,arr_delay>=120,dep_delay<=15) 

# A tibble: 54 × 19
    year month   day dep_time sched_de…¹ dep_d…² arr_t…³ sched…⁴ arr_d…⁵ carrier
   <int> <int> <int>    <int>      <int>   <dbl>   <int>   <int>   <dbl> <chr>  
 1  2013     1    27     1419       1420      -1    1754    1550     124 MQ     
 2  2013    10     7     1350       1350       0    1736    1526     130 EV     
 3  2013    10     7     1357       1359      -2    1858    1654     124 AA     
 4  2013    10    16      657        700      -3    1258    1056     122 B6     
 5  2013    11     1      658        700      -2    1329    1015     194 VX     
 6  2013    11    11     1604       1559       5    1932    1732     120 UA     
 7  2013    12     5      902        847      15    1423    1211     132 UA     
 8  2013    12     8     1608       1600       8    1957    1741     136 UA     
 9  2013     3     8     1246       1245       1    1552    1350     122 AA     
10  2013     3    18     1844       1847      -3      39    2219     140 UA     
# … with 44 more rows, 9 more variables: flight <int>, tailnum <chr>,
#   origin <chr>, dest <chr>, air_time <dbl>, distance <dbl>, hour <dbl>,
#   minute <dbl>, time_hour <dttm>, and abbreviated variable names
#   ¹​sched_dep_time, ²​dep_delay, ³​arr_time, ⁴​sched_arr_time, ⁵​arr_delay

# Google tells me that anything less than 15 minutes is still considered "on time"
# https://www.bts.gov/explore-topics-and-geography/topics/airline-time-performance-and-causes-flight-delays#:~:text=from%20U.S.%20airports.-,How%20are%20flight%20delays%20calculated%3F,on%20departure%20from%20the%20gate.

#6 Were delayed by at least an hour, but made up over 30 minutes in flight
filter(flights,dep_delay>=60,arr_delay<dep_delay-30) 

# A tibble: 1,844 × 19
    year month   day dep_time sched_de…¹ dep_d…² arr_t…³ sched…⁴ arr_d…⁵ carrier
   <int> <int> <int>    <int>      <int>   <dbl>   <int>   <int>   <dbl> <chr>  
 1  2013     1     1     2205       1720     285      46    2040     246 AA     
 2  2013     1     1     2326       2130     116     131      18      73 B6     
 3  2013     1     3     1503       1221     162    1803    1555     128 UA     
 4  2013     1     3     1839       1700      99    2056    1950      66 AA     
 5  2013     1     3     1850       1745      65    2148    2120      28 AA     
 6  2013     1     3     1941       1759     102    2246    2139      67 UA     
 7  2013     1     3     1950       1845      65    2228    2227       1 B6     
 8  2013     1     3     2015       1915      60    2135    2111      24 9E     
 9  2013     1     3     2257       2000     177      45    2224     141 9E     
10  2013     1     4     1917       1700     137    2135    1950     105 AA     
# … with 1,834 more rows, 9 more variables: flight <int>, tailnum <chr>,
#   origin <chr>, dest <chr>, air_time <dbl>, distance <dbl>, hour <dbl>,
#   minute <dbl>, time_hour <dttm>, and abbreviated variable names
#   ¹​sched_dep_time, ²​dep_delay, ³​arr_time, ⁴​sched_arr_time, ⁵​arr_delay

#7 Departed between midnight and 6am (inclusive)
# NB: dep_time is formatted as 4-digit times NOT as minutes, just as HH:MM without the colon!
filter(flights,dep_time>=0,dep_time<=0600)

# A tibble: 9,344 × 19
    year month   day dep_time sched_de…¹ dep_d…² arr_t…³ sched…⁴ arr_d…⁵ carrier
   <int> <int> <int>    <int>      <int>   <dbl>   <int>   <int>   <dbl> <chr>  
 1  2013     1     1      517        515       2     830     819      11 UA     
 2  2013     1     1      533        529       4     850     830      20 UA     
 3  2013     1     1      542        540       2     923     850      33 AA     
 4  2013     1     1      544        545      -1    1004    1022     -18 B6     
 5  2013     1     1      554        600      -6     812     837     -25 DL     
 6  2013     1     1      554        558      -4     740     728      12 UA     
 7  2013     1     1      555        600      -5     913     854      19 B6     
 8  2013     1     1      557        600      -3     709     723     -14 EV     
 9  2013     1     1      557        600      -3     838     846      -8 B6     
10  2013     1     1      558        600      -2     753     745       8 AA     
# … with 9,334 more rows, 9 more variables: flight <int>, tailnum <chr>,
#   origin <chr>, dest <chr>, air_time <dbl>, distance <dbl>, hour <dbl>,
#   minute <dbl>, time_hour <dttm>, and abbreviated variable names
#   ¹​sched_dep_time, ²​dep_delay, ³​arr_time, ⁴​sched_arr_time, ⁵​arr_delay
…
Whenever you start using complicated, multipart expressions in filter(), consider making them explicit variables instead. That makes it much easier to check your work. You’ll learn how to create new variables shortly.

Here we are going to apply that advice by creating a logical variable by running is.na(dep_time) within the arrange function as follows:

arrange(flights, desc(is.na(dep_time)), dep_time)

Now, two things to note here: 1) is.na(dep_time) evaluates to a vector of TRUE or FALSE values, which can be thought of as 1 for TRUE and 0 for FALSE - hence this variable should be sorted in descending order if we want the NAs before the non-NA values. Also, 2) listing dep_time after desc(is.na(dep_time)) means we will have flights that do have departure times arranged in increasing order, i.e. the desc only applies to the first variable used by arrange.

You can sort flights to find the most delayed flights by running arrange(flights,desc(dep_delay)) and find the flights that left earliest (which I assume means “earliest in the day” not “earliest relative to their scheduled departure time) by running arrange(flights,dep_time). If you wanted earliest in the YEAR then you would run arrange(flights,day,dep_time)

Sort flights to find the fastest (highest speed) flights. I assume this means fastest average speed over the duration of the flight.

arrange(flights,desc(distance/(air_time)))

# A tibble: 336,776 × 19
    year month   day dep_time sched_de…¹ dep_d…² arr_t…³ sched…⁴ arr_d…⁵ carrier
   <int> <int> <int>    <int>      <int>   <dbl>   <int>   <int>   <dbl> <chr>  
 1  2013     5    25     1709       1700       9    1923    1937     -14 DL     
 2  2013     7     2     1558       1513      45    1745    1719      26 EV     
 3  2013     5    13     2040       2025      15    2225    2226      -1 EV     
 4  2013     3    23     1914       1910       4    2045    2043       2 EV     
 5  2013     1    12     1559       1600      -1    1849    1917     -28 DL     
 6  2013    11    17      650        655      -5    1059    1150     -51 DL     
 7  2013     2    21     2355       2358      -3     412     438     -26 B6     
 8  2013    11    17      759        800      -1    1212    1255     -43 AA     
 9  2013    11    16     2003       1925      38      17      36     -19 DL     
10  2013    11    16     2349       2359     -10     402     440     -38 B6     
# … with 336,766 more rows, 9 more variables: flight <int>, tailnum <chr>,
#   origin <chr>, dest <chr>, air_time <dbl>, distance <dbl>, hour <dbl>,
#   minute <dbl>, time_hour <dttm>, and abbreviated variable names
#   ¹​sched_dep_time, ²​dep_delay, ³​arr_time, ⁴​sched_arr_time, ⁵​arr_delay
…
What happens if you include the name of a variable multiple times in a select() call?

The line select(flights,"dep_time","dep_time") just returns the same output as select(flights,"dep_time").

The Answer Key presents some utility for this fact, by allowing you to use select with any particular variable you want to move to the first column of the list, along with the everything(), e.g. by writing select(flights,"dep_time",everything()) to move dep_time to the first column

What does the any_of() function do? Why might it be helpful in conjunction with this vector? vars <- c("year", "month", "day", "dep_delay", "arr_delay")

The anyof() function allows you to feed a list of variable names to the select() function, but I’m unclear how this is of great utility. The help file (?any_of()) and this page make some arguments for how this can be useful if you’re missing some values and don’t want to exclude them. I would not get too hung up on this particular question for now.

vars <- c("year", "month", "day", "dep_delay", "arr_delay")
select(flights,any_of(vars)) 

# A tibble: 336,776 × 5
    year month   day dep_delay arr_delay
   <int> <int> <int>     <dbl>     <dbl>
 1  2013     1     1         2        11
 2  2013     1     1         4        20
 3  2013     1     1         2        33
 4  2013     1     1        -1       -18
 5  2013     1     1        -6       -25
 6  2013     1     1        -4        12
 7  2013     1     1        -5        19
 8  2013     1     1        -3       -14
 9  2013     1     1        -3        -8
10  2013     1     1        -2         8
# … with 336,766 more rows
…
