…
## Exercises

### Exercise 1

    ## [1] "There are 52519 pets in the dataset"

### Exercise 2

    ## [1] "There are 7 variables per pet in the dataset"

### Exercise 3

    ## # A tibble: 13,930 × 2
    ##    animal_name     n
    ##    <chr>       <int>
    ##  1 <NA>          483
    ##  2 Lucy          439
    ##  3 Charlie       387
    ##  4 Luna          355
    ##  5 Bella         331
    ##  6 Max           270
    ##  7 Daisy         261
    ##  8 Molly         240
    ##  9 Jack          232
    ## 10 Lily          232
    ## # … with 13,920 more rows
…
Lucy Charlie Luna

### Exercise 4

``` r
seattlepets %>% group_by(species) %>% count(animal_name,sort= TRUE) %>%
slice_max(n,n=5) %>% arrange(species,n)
```

    ## # A tibble: 53 × 3
    ## # Groups:   species [4]
    ##    species animal_name     n
    ##    <chr>   <chr>       <int>
    ##  1 Cat     Max            83
    ##  2 Cat     Lily           86
    ##  3 Cat     Lucy          102
    ##  4 Cat     Luna          111
    ##  5 Cat     <NA>          406
    ##  6 Dog     Daisy         221
    ##  7 Dog     Luna          244
    ##  8 Dog     Bella         249
    ##  9 Dog     Charlie       306
    ## 10 Dog     Lucy          337
    ## # … with 43 more rows

This is kind of weird, becaues it sorts them in descending order

``` r
seattlepets %>% group_by(species) %>% count(animal_name,sort= TRUE) %>%
slice_max(n,n=5) 
```

    ## # A tibble: 53 × 3
    ## # Groups:   species [4]
    ##    species animal_name     n
    ##    <chr>   <chr>       <int>
    ##  1 Cat     <NA>          406
    ##  2 Cat     Luna          111
    ##  3 Cat     Lucy          102
    ##  4 Cat     Lily           86
    ##  5 Cat     Max            83
    ##  6 Dog     Lucy          337
    ##  7 Dog     Charlie       306
    ##  8 Dog     Bella         249
    ##  9 Dog     Luna          244
    ## 10 Dog     Daisy         221
    ## # … with 43 more rows
…
