Hotel bookings - data wrangling
…
How many bookings involve at least 1 child or baby?

In the following chunk, replace

[AT LEAST] with the logical operator for “at least” (in two places)

[OR] with the logical operator for “or”

Note: You will need to set eval=TRUE when you have an answer you want to try out.

hotels %>%
filter(children >= 1 | babies >= 1)

# A tibble: 9,332 × 32
   hotel  is_ca…¹ lead_…² arriv…³ arriv…⁴ arriv…⁵ arriv…⁶ stays…⁷ stays…⁸ adults
   <chr>    <dbl>   <dbl>   <dbl> <chr>     <dbl>   <dbl>   <dbl>   <dbl>  <dbl>
 1 Resor…       0      18    2015 July         27       1       0       4      2
 2 Resor…       1      47    2015 July         27       2       2       5      2
 3 Resor…       0       1    2015 July         27       2       0       1      2
 4 Resor…       0      10    2015 July         27       3       0       2      2
 5 Resor…       1      79    2015 July         27       3       6      15      2
 6 Resor…       0     101    2015 July         27       3       2       5      2
 7 Resor…       0      92    2015 July         27       4       2       4      1
 8 Resor…       1      26    2015 July         27       4       2       5      2
 9 Resor…       0     102    2015 July         27       4       2       5      2
10 Resor…       0      78    2015 July         27       4       2       5      2
# … with 9,322 more rows, 22 more variables: children <dbl>, babies <dbl>,
#   meal <chr>, country <chr>, market_segment <chr>,
#   distribution_channel <chr>, is_repeated_guest <dbl>,
#   previous_cancellations <dbl>, previous_bookings_not_canceled <dbl>,
#   reserved_room_type <chr>, assigned_room_type <chr>, booking_changes <dbl>,
#   deposit_type <chr>, agent <chr>, company <chr>, days_in_waiting_list <dbl>,
#   customer_type <chr>, adr <dbl>, required_car_parking_spaces <dbl>, …

Exercise 4.

Do you think it’s more likely to find bookings with children or babies in city hotels or resort hotels? Test your intuition. Using filter() determine the number of bookings in resort hotels that have more than 1 child or baby in the room? Then, do the same for city hotels, and compare the numbers of rows in the resulting filtered data frames.

# add code here
# pay attention to correctness and code style

hotels %>%
filter(hotel == "Resort Hotel" & children >= 1 | babies >= 1) %>% 
select(babies,children,hotel)

# A tibble: 4,298 × 3
   babies children hotel       
    <dbl>    <dbl> <chr>       
 1      0        1 Resort Hotel
 2      0        2 Resort Hotel
 3      0        2 Resort Hotel
 4      0        2 Resort Hotel
 5      0        1 Resort Hotel
 6      0        1 Resort Hotel
 7      0        2 Resort Hotel
 8      0        2 Resort Hotel
 9      1        0 Resort Hotel
10      1        0 Resort Hotel
# … with 4,288 more rows

hotels %>%
filter(hotel == "City Hotel" & children >= 1 | babies >= 1) %>% 
select(babies,children,hotel)

# A tibble: 5,951 × 3
   babies children hotel       
    <dbl>    <dbl> <chr>       
 1      1        0 Resort Hotel
 2      1        0 Resort Hotel
 3      1        0 Resort Hotel
 4      1        0 Resort Hotel
 5      2        0 Resort Hotel
 6      1        1 Resort Hotel
 7      1        0 Resort Hotel
 8      1        0 Resort Hotel
 9      1        0 Resort Hotel
10      1        0 Resort Hotel
# … with 5,941 more rows
…
